sw_proc/simulation/qsim/processor_with_ROM.msim.vcd
$comment
	File created using the following command:
		vcd file processor_with_ROM.msim.vcd -direction
$end
$date
	Sun May 19 20:27:56 2019
$end
$version
	ModelSim Version 10.5b
$end
$timescale
	1ps
$end

$scope module processor_with_ROM_vlg_vec_tst $end
$var reg 1 ! MClock $end
$var reg 1 " PClock $end
$var reg 1 # Resetn $end
$var reg 1 $ Run $end
$var wire 1 % BusWires [8] $end
$var wire 1 & BusWires [7] $end
$var wire 1 ' BusWires [6] $end
$var wire 1 ( BusWires [5] $end
$var wire 1 ) BusWires [4] $end
$var wire 1 * BusWires [3] $end
$var wire 1 + BusWires [2] $end
$var wire 1 , BusWires [1] $end
$var wire 1 - BusWires [0] $end
$var wire 1 . Done $end

$scope module i1 $end
$var wire 1 / gnd $end
$var wire 1 0 vcc $end
$var wire 1 1 unknown $end
$var tri1 1 2 devclrn $end
$var tri1 1 3 devpor $end
$var tri1 1 4 devoe $end
$var wire 1 5 ~QUARTUS_CREATED_GND~I_combout $end
$var wire 1 6 PClock~input_o $end
$var wire 1 7 PClock~inputCLKENA0_outclk $end
$var wire 1 8 MClock~input_o $end
$var wire 1 9 MClock~inputCLKENA0_outclk $end
$var wire 1 : counter|Q[0]~4_combout $end
$var wire 1 ; Resetn~input_o $end
$var wire 1 < counter|Q[0]~DUPLICATE_q $end
$var wire 1 = counter|Q[1]~0_combout $end
$var wire 1 > counter|Q[1]~DUPLICATE_q $end
$var wire 1 ? counter|Q[2]~1_combout $end
$var wire 1 @ counter|Q[2]~DUPLICATE_q $end
$var wire 1 A counter|Q[3]~2_combout $end
$var wire 1 B counter|Q[4]~3_combout $end
$var wire 1 C cpu|cu|Tstep_Q[1]~DUPLICATE_q $end
$var wire 1 D Run~input_o $end
$var wire 1 E cpu|cu|Decoder1~0_combout $end
$var wire 1 F cpu|cu|Mux18~0_combout $end
$var wire 1 G cpu|cu|Mux19~0_combout $end
$var wire 1 H cpu|cu|Ain~0_combout $end
$var wire 1 I cpu|cu|Mux20~0_combout $end
$var wire 1 J cpu|cu|Mux19~1_combout $end
$var wire 1 K cpu|cu|Mux21~0_combout $end
$var wire 1 L cpu|cu|Mux26~0_combout $end
$var wire 1 M cpu|multiplexers|Equal2~0_combout $end
$var wire 1 N cpu|cu|Mux22~0_combout $end
$var wire 1 O cpu|cu|Mux25~0_combout $end
$var wire 1 P cpu|cu|Mux24~0_combout $end
$var wire 1 Q cpu|cu|Mux23~0_combout $end
$var wire 1 R cpu|multiplexers|Equal7~0_combout $end
$var wire 1 S cpu|multiplexers|Selector8~4_combout $end
$var wire 1 T cpu|multiplexers|Equal2~1_combout $end
$var wire 1 U cpu|multiplexers|Selector8~1_combout $end
$var wire 1 V cpu|multiplexers|Selector8~0_combout $end
$var wire 1 W cpu|reg_3|Q[0]~feeder_combout $end
$var wire 1 X cpu|multiplexers|Selector8~3_combout $end
$var wire 1 Y cpu|multiplexers|Equal3~0_combout $end
$var wire 1 Z cpu|multiplexers|Equal2~2_combout $end
$var wire 1 [ cpu|multiplexers|Selector8~2_combout $end
$var wire 1 \ cpu|cu|Gout~0_combout $end
$var wire 1 ] cpu|multiplexers|Equal7~1_combout $end
$var wire 1 ^ cpu|multiplexers|Equal2~3_combout $end
$var wire 1 _ cpu|cu|DINout~0_combout $end
$var wire 1 ` cpu|cu|Decoder0~0_combout $end
$var wire 1 a cpu|addsub|Add0~38_cout $end
$var wire 1 b cpu|addsub|Add0~1_sumout $end
$var wire 1 c cpu|cu|Gin~0_combout $end
$var wire 1 d cpu|multiplexers|Selector8~5_combout $end
$var wire 1 e cpu|multiplexers|Selector8~6_combout $end
$var wire 1 f cpu|multiplexers|Selector7~2_combout $end
$var wire 1 g cpu|multiplexers|Selector7~4_combout $end
$var wire 1 h cpu|multiplexers|Selector7~1_combout $end
$var wire 1 i cpu|multiplexers|Selector7~0_combout $end
$var wire 1 j cpu|multiplexers|Selector7~3_combout $end
$var wire 1 k cpu|addsub|Add0~2 $end
$var wire 1 l cpu|addsub|Add0~5_sumout $end
$var wire 1 m cpu|multiplexers|Selector7~5_combout $end
$var wire 1 n cpu|multiplexers|Selector7~6_combout $end
$var wire 1 o cpu|multiplexers|Selector6~0_combout $end
$var wire 1 p cpu|multiplexers|Selector6~4_combout $end
$var wire 1 q cpu|multiplexers|Selector6~3_combout $end
$var wire 1 r cpu|multiplexers|Selector6~1_combout $end
$var wire 1 s cpu|multiplexers|Selector6~2_combout $end
$var wire 1 t cpu|addsub|Add0~6 $end
$var wire 1 u cpu|addsub|Add0~9_sumout $end
$var wire 1 v cpu|multiplexers|Selector6~5_combout $end
$var wire 1 w cpu|multiplexers|Selector6~6_combout $end
$var wire 1 x cpu|multiplexers|Selector5~0_combout $end
$var wire 1 y cpu|multiplexers|Selector5~1_combout $end
$var wire 1 z cpu|multiplexers|Selector5~2_combout $end
$var wire 1 { cpu|multiplexers|Selector5~3_combout $end
$var wire 1 | cpu|multiplexers|Selector5~4_combout $end
$var wire 1 } cpu|addsub|Add0~10 $end
$var wire 1 ~ cpu|addsub|Add0~13_sumout $end
$var wire 1 !! cpu|multiplexers|Selector5~5_combout $end
$var wire 1 "! cpu|multiplexers|Selector5~6_combout $end
$var wire 1 #! cpu|multiplexers|Selector4~1_combout $end
$var wire 1 $! cpu|multiplexers|Selector4~3_combout $end
$var wire 1 %! cpu|multiplexers|Selector4~4_combout $end
$var wire 1 &! cpu|multiplexers|Selector4~2_combout $end
$var wire 1 '! cpu|multiplexers|Selector4~0_combout $end
$var wire 1 (! cpu|addsub|Add0~14 $end
$var wire 1 )! cpu|addsub|Add0~17_sumout $end
$var wire 1 *! cpu|multiplexers|Selector4~5_combout $end
$var wire 1 +! cpu|multiplexers|Selector4~6_combout $end
$var wire 1 ,! cpu|multiplexers|Selector3~1_combout $end
$var wire 1 -! cpu|multiplexers|Selector3~0_combout $end
$var wire 1 .! cpu|multiplexers|Selector3~3_combout $end
$var wire 1 /! cpu|multiplexers|Selector3~2_combout $end
$var wire 1 0! cpu|multiplexers|Selector3~4_combout $end
$var wire 1 1! cpu|addsub|Add0~18 $end
$var wire 1 2! cpu|addsub|Add0~21_sumout $end
$var wire 1 3! cpu|multiplexers|Selector3~5_combout $end
$var wire 1 4! cpu|multiplexers|Selector3~6_combout $end
$var wire 1 5! cpu|multiplexers|Selector2~4_combout $end
$var wire 1 6! cpu|multiplexers|Selector2~1_combout $end
$var wire 1 7! cpu|multiplexers|Selector2~2_combout $end
$var wire 1 8! cpu|multiplexers|Selector2~3_combout $end
$var wire 1 9! cpu|multiplexers|Selector2~0_combout $end
$var wire 1 :! cpu|addsub|Add0~22 $end
$var wire 1 ;! cpu|addsub|Add0~25_sumout $end
$var wire 1 <! cpu|multiplexers|Selector2~5_combout $end
$var wire 1 =! cpu|multiplexers|Selector2~6_combout $end
$var wire 1 >! cpu|multiplexers|Selector1~4_combout $end
$var wire 1 ?! cpu|multiplexers|Selector1~1_combout $end
$var wire 1 @! cpu|multiplexers|Selector1~0_combout $end
$var wire 1 A! cpu|multiplexers|Selector1~3_combout $end
$var wire 1 B! cpu|multiplexers|Selector1~2_combout $end
$var wire 1 C! cpu|addsub|Add0~26 $end
$var wire 1 D! cpu|addsub|Add0~29_sumout $end
$var wire 1 E! cpu|multiplexers|Selector1~5_combout $end
$var wire 1 F! cpu|multiplexers|Selector1~6_combout $end
$var wire 1 G! cpu|multiplexers|Selector0~1_combout $end
$var wire 1 H! cpu|reg_5|Q[8]~feeder_combout $end
$var wire 1 I! cpu|reg_6|Q[8]~feeder_combout $end
$var wire 1 J! cpu|multiplexers|Selector0~2_combout $end
$var wire 1 K! cpu|multiplexers|Selector0~4_combout $end
$var wire 1 L! cpu|multiplexers|Selector0~3_combout $end
$var wire 1 M! cpu|multiplexers|Selector0~0_combout $end
$var wire 1 N! cpu|addsub|Add0~30 $end
$var wire 1 O! cpu|addsub|Add0~33_sumout $end
$var wire 1 P! cpu|multiplexers|Selector0~5_combout $end
$var wire 1 Q! cpu|multiplexers|Selector0~6_combout $end
$var wire 1 R! cpu|cu|Xreg [7] $end
$var wire 1 S! cpu|cu|Xreg [6] $end
$var wire 1 T! cpu|cu|Xreg [5] $end
$var wire 1 U! cpu|cu|Xreg [4] $end
$var wire 1 V! cpu|cu|Xreg [3] $end
$var wire 1 W! cpu|cu|Xreg [2] $end
$var wire 1 X! cpu|cu|Xreg [1] $end
$var wire 1 Y! cpu|cu|Xreg [0] $end
$var wire 1 Z! mem|altsyncram_component|auto_generated|q_a [8] $end
$var wire 1 [! mem|altsyncram_component|auto_generated|q_a [7] $end
$var wire 1 \! mem|altsyncram_component|auto_generated|q_a [6] $end
$var wire 1 ]! mem|altsyncram_component|auto_generated|q_a [5] $end
$var wire 1 ^! mem|altsyncram_component|auto_generated|q_a [4] $end
$var wire 1 _! mem|altsyncram_component|auto_generated|q_a [3] $end
$var wire 1 `! mem|altsyncram_component|auto_generated|q_a [2] $end
$var wire 1 a! mem|altsyncram_component|auto_generated|q_a [1] $end
$var wire 1 b! mem|altsyncram_component|auto_generated|q_a [0] $end
$var wire 1 c! cpu|cu|Tstep_Q [1] $end
$var wire 1 d! cpu|cu|Tstep_Q [0] $end
$var wire 1 e! cpu|R7 [8] $end
$var wire 1 f! cpu|R7 [7] $end
$var wire 1 g! cpu|R7 [6] $end
$var wire 1 h! cpu|R7 [5] $end
$var wire 1 i! cpu|R7 [4] $end
$var wire 1 j! cpu|R7 [3] $end
$var wire 1 k! cpu|R7 [2] $end
$var wire 1 l! cpu|R7 [1] $end
$var wire 1 m! cpu|R7 [0] $end
$var wire 1 n! cpu|reg_5|Q [8] $end
$var wire 1 o! cpu|reg_5|Q [7] $end
$var wire 1 p! cpu|reg_5|Q [6] $end
$var wire 1 q! cpu|reg_5|Q [5] $end
$var wire 1 r! cpu|reg_5|Q [4] $end
$var wire 1 s! cpu|reg_5|Q [3] $end
$var wire 1 t! cpu|reg_5|Q [2] $end
$var wire 1 u! cpu|reg_5|Q [1] $end
$var wire 1 v! cpu|reg_5|Q [0] $end
$var wire 1 w! cpu|reg_IR|Q [8] $end
$var wire 1 x! cpu|reg_IR|Q [7] $end
$var wire 1 y! cpu|reg_IR|Q [6] $end
$var wire 1 z! cpu|reg_IR|Q [5] $end
$var wire 1 {! cpu|reg_IR|Q [4] $end
$var wire 1 |! cpu|reg_IR|Q [3] $end
$var wire 1 }! cpu|reg_IR|Q [2] $end
$var wire 1 ~! cpu|reg_IR|Q [1] $end
$var wire 1 !" cpu|reg_IR|Q [0] $end
$var wire 1 "" cpu|cu|Yreg [7] $end
$var wire 1 #" cpu|cu|Yreg [6] $end
$var wire 1 $" cpu|cu|Yreg [5] $end
$var wire 1 %" cpu|cu|Yreg [4] $end
$var wire 1 &" cpu|cu|Yreg [3] $end
$var wire 1 '" cpu|cu|Yreg [2] $end
$var wire 1 (" cpu|cu|Yreg [1] $end
$var wire 1 )" cpu|cu|Yreg [0] $end
$var wire 1 *" cpu|reg_6|Q [8] $end
$var wire 1 +" cpu|reg_6|Q [7] $end
$var wire 1 ," cpu|reg_6|Q [6] $end
$var wire 1 -" cpu|reg_6|Q [5] $end
$var wire 1 ." cpu|reg_6|Q [4] $end
$var wire 1 /" cpu|reg_6|Q [3] $end
$var wire 1 0" cpu|reg_6|Q [2] $end
$var wire 1 1" cpu|reg_6|Q [1] $end
$var wire 1 2" cpu|reg_6|Q [0] $end
$var wire 1 3" cpu|reg_2|Q [8] $end
$var wire 1 4" cpu|reg_2|Q [7] $end
$var wire 1 5" cpu|reg_2|Q [6] $end
$var wire 1 6" cpu|reg_2|Q [5] $end
$var wire 1 7" cpu|reg_2|Q [4] $end
$var wire 1 8" cpu|reg_2|Q [3] $end
$var wire 1 9" cpu|reg_2|Q [2] $end
$var wire 1 :" cpu|reg_2|Q [1] $end
$var wire 1 ;" cpu|reg_2|Q [0] $end
$var wire 1 <" cpu|reg_4|Q [8] $end
$var wire 1 =" cpu|reg_4|Q [7] $end
$var wire 1 >" cpu|reg_4|Q [6] $end
$var wire 1 ?" cpu|reg_4|Q [5] $end
$var wire 1 @" cpu|reg_4|Q [4] $end
$var wire 1 A" cpu|reg_4|Q [3] $end
$var wire 1 B" cpu|reg_4|Q [2] $end
$var wire 1 C" cpu|reg_4|Q [1] $end
$var wire 1 D" cpu|reg_4|Q [0] $end
$var wire 1 E" cpu|reg_3|Q [8] $end
$var wire 1 F" cpu|reg_3|Q [7] $end
$var wire 1 G" cpu|reg_3|Q [6] $end
$var wire 1 H" cpu|reg_3|Q [5] $end
$var wire 1 I" cpu|reg_3|Q [4] $end
$var wire 1 J" cpu|reg_3|Q [3] $end
$var wire 1 K" cpu|reg_3|Q [2] $end
$var wire 1 L" cpu|reg_3|Q [1] $end
$var wire 1 M" cpu|reg_3|Q [0] $end
$var wire 1 N" cpu|reg_0|Q [8] $end
$var wire 1 O" cpu|reg_0|Q [7] $end
$var wire 1 P" cpu|reg_0|Q [6] $end
$var wire 1 Q" cpu|reg_0|Q [5] $end
$var wire 1 R" cpu|reg_0|Q [4] $end
$var wire 1 S" cpu|reg_0|Q [3] $end
$var wire 1 T" cpu|reg_0|Q [2] $end
$var wire 1 U" cpu|reg_0|Q [1] $end
$var wire 1 V" cpu|reg_0|Q [0] $end
$var wire 1 W" cpu|reg_7|Q [8] $end
$var wire 1 X" cpu|reg_7|Q [7] $end
$var wire 1 Y" cpu|reg_7|Q [6] $end
$var wire 1 Z" cpu|reg_7|Q [5] $end
$var wire 1 [" cpu|reg_7|Q [4] $end
$var wire 1 \" cpu|reg_7|Q [3] $end
$var wire 1 ]" cpu|reg_7|Q [2] $end
$var wire 1 ^" cpu|reg_7|Q [1] $end
$var wire 1 _" cpu|reg_7|Q [0] $end
$var wire 1 `" cpu|reg_1|Q [8] $end
$var wire 1 a" cpu|reg_1|Q [7] $end
$var wire 1 b" cpu|reg_1|Q [6] $end
$var wire 1 c" cpu|reg_1|Q [5] $end
$var wire 1 d" cpu|reg_1|Q [4] $end
$var wire 1 e" cpu|reg_1|Q [3] $end
$var wire 1 f" cpu|reg_1|Q [2] $end
$var wire 1 g" cpu|reg_1|Q [1] $end
$var wire 1 h" cpu|reg_1|Q [0] $end
$var wire 1 i" cpu|reg_G|Q [8] $end
$var wire 1 j" cpu|reg_G|Q [7] $end
$var wire 1 k" cpu|reg_G|Q [6] $end
$var wire 1 l" cpu|reg_G|Q [5] $end
$var wire 1 m" cpu|reg_G|Q [4] $end
$var wire 1 n" cpu|reg_G|Q [3] $end
$var wire 1 o" cpu|reg_G|Q [2] $end
$var wire 1 p" cpu|reg_G|Q [1] $end
$var wire 1 q" cpu|reg_G|Q [0] $end
$var wire 1 r" cpu|cu|Tstep_D [1] $end
$var wire 1 s" cpu|cu|Tstep_D [0] $end
$var wire 1 t" cpu|cu|I [2] $end
$var wire 1 u" cpu|cu|I [1] $end
$var wire 1 v" cpu|cu|I [0] $end
$var wire 1 w" cpu|Rin [7] $end
$var wire 1 x" cpu|Rin [6] $end
$var wire 1 y" cpu|Rin [5] $end
$var wire 1 z" cpu|Rin [4] $end
$var wire 1 {" cpu|Rin [3] $end
$var wire 1 |" cpu|Rin [2] $end
$var wire 1 }" cpu|Rin [1] $end
$var wire 1 ~" cpu|Rin [0] $end
$var wire 1 !# cpu|G [8] $end
$var wire 1 "# cpu|G [7] $end
$var wire 1 ## cpu|G [6] $end
$var wire 1 $# cpu|G [5] $end
$var wire 1 %# cpu|G [4] $end
$var wire 1 &# cpu|G [3] $end
$var wire 1 '# cpu|G [2] $end
$var wire 1 (# cpu|G [1] $end
$var wire 1 )# cpu|G [0] $end
$var wire 1 *# counter|Q [4] $end
$var wire 1 +# counter|Q [3] $end
$var wire 1 ,# counter|Q [2] $end
$var wire 1 -# counter|Q [1] $end
$var wire 1 .# counter|Q [0] $end
$var wire 1 /# cpu|reg_A|Q [8] $end
$var wire 1 0# cpu|reg_A|Q [7] $end
$var wire 1 1# cpu|reg_A|Q [6] $end
$var wire 1 2# cpu|reg_A|Q [5] $end
$var wire 1 3# cpu|reg_A|Q [4] $end
$var wire 1 4# cpu|reg_A|Q [3] $end
$var wire 1 5# cpu|reg_A|Q [2] $end
$var wire 1 6# cpu|reg_A|Q [1] $end
$var wire 1 7# cpu|reg_A|Q [0] $end
$var wire 1 8# cpu|R2 [8] $end
$var wire 1 9# cpu|R2 [7] $end
$var wire 1 :# cpu|R2 [6] $end
$var wire 1 ;# cpu|R2 [5] $end
$var wire 1 <# cpu|R2 [4] $end
$var wire 1 =# cpu|R2 [3] $end
$var wire 1 ># cpu|R2 [2] $end
$var wire 1 ?# cpu|R2 [1] $end
$var wire 1 @# cpu|R2 [0] $end
$var wire 1 A# cpu|R4 [8] $end
$var wire 1 B# cpu|R4 [7] $end
$var wire 1 C# cpu|R4 [6] $end
$var wire 1 D# cpu|R4 [5] $end
$var wire 1 E# cpu|R4 [4] $end
$var wire 1 F# cpu|R4 [3] $end
$var wire 1 G# cpu|R4 [2] $end
$var wire 1 H# cpu|R4 [1] $end
$var wire 1 I# cpu|R4 [0] $end
$var wire 1 J# counter_addr [4] $end
$var wire 1 K# counter_addr [3] $end
$var wire 1 L# counter_addr [2] $end
$var wire 1 M# counter_addr [1] $end
$var wire 1 N# counter_addr [0] $end
$var wire 1 O# cpu|R5 [8] $end
$var wire 1 P# cpu|R5 [7] $end
$var wire 1 Q# cpu|R5 [6] $end
$var wire 1 R# cpu|R5 [5] $end
$var wire 1 S# cpu|R5 [4] $end
$var wire 1 T# cpu|R5 [3] $end
$var wire 1 U# cpu|R5 [2] $end
$var wire 1 V# cpu|R5 [1] $end
$var wire 1 W# cpu|R5 [0] $end
$var wire 1 X# mem_q [8] $end
$var wire 1 Y# mem_q [7] $end
$var wire 1 Z# mem_q [6] $end
$var wire 1 [# mem_q [5] $end
$var wire 1 \# mem_q [4] $end
$var wire 1 ]# mem_q [3] $end
$var wire 1 ^# mem_q [2] $end
$var wire 1 _# mem_q [1] $end
$var wire 1 `# mem_q [0] $end
$var wire 1 a# cpu|R6 [8] $end
$var wire 1 b# cpu|R6 [7] $end
$var wire 1 c# cpu|R6 [6] $end
$var wire 1 d# cpu|R6 [5] $end
$var wire 1 e# cpu|R6 [4] $end
$var wire 1 f# cpu|R6 [3] $end
$var wire 1 g# cpu|R6 [2] $end
$var wire 1 h# cpu|R6 [1] $end
$var wire 1 i# cpu|R6 [0] $end
$var wire 1 j# cpu|R3 [8] $end
$var wire 1 k# cpu|R3 [7] $end
$var wire 1 l# cpu|R3 [6] $end
$var wire 1 m# cpu|R3 [5] $end
$var wire 1 n# cpu|R3 [4] $end
$var wire 1 o# cpu|R3 [3] $end
$var wire 1 p# cpu|R3 [2] $end
$var wire 1 q# cpu|R3 [1] $end
$var wire 1 r# cpu|R3 [0] $end
$var wire 1 s# cpu|R0 [8] $end
$var wire 1 t# cpu|R0 [7] $end
$var wire 1 u# cpu|R0 [6] $end
$var wire 1 v# cpu|R0 [5] $end
$var wire 1 w# cpu|R0 [4] $end
$var wire 1 x# cpu|R0 [3] $end
$var wire 1 y# cpu|R0 [2] $end
$var wire 1 z# cpu|R0 [1] $end
$var wire 1 {# cpu|R0 [0] $end
$var wire 1 |# cpu|R1 [8] $end
$var wire 1 }# cpu|R1 [7] $end
$var wire 1 ~# cpu|R1 [6] $end
$var wire 1 !$ cpu|R1 [5] $end
$var wire 1 "$ cpu|R1 [4] $end
$var wire 1 #$ cpu|R1 [3] $end
$var wire 1 $$ cpu|R1 [2] $end
$var wire 1 %$ cpu|R1 [1] $end
$var wire 1 &$ cpu|R1 [0] $end
$var wire 1 '$ cpu|A [8] $end
$var wire 1 ($ cpu|A [7] $end
$var wire 1 )$ cpu|A [6] $end
$var wire 1 *$ cpu|A [5] $end
$var wire 1 +$ cpu|A [4] $end
$var wire 1 ,$ cpu|A [3] $end
$var wire 1 -$ cpu|A [2] $end
$var wire 1 .$ cpu|A [1] $end
$var wire 1 /$ cpu|A [0] $end
$var wire 1 0$ mem|altsyncram_component|auto_generated|ram_block1a0_PORTADATAOUT_bus [19] $end
$var wire 1 1$ mem|altsyncram_component|auto_generated|ram_block1a0_PORTADATAOUT_bus [18] $end
$var wire 1 2$ mem|altsyncram_component|auto_generated|ram_block1a0_PORTADATAOUT_bus [17] $end
$var wire 1 3$ mem|altsyncram_component|auto_generated|ram_block1a0_PORTADATAOUT_bus [16] $end
$var wire 1 4$ mem|altsyncram_component|auto_generated|ram_block1a0_PORTADATAOUT_bus [15] $end
$var wire 1 5$ mem|altsyncram_component|auto_generated|ram_block1a0_PORTADATAOUT_bus [14] $end
$var wire 1 6$ mem|altsyncram_component|auto_generated|ram_block1a0_PORTADATAOUT_bus [13] $end
$var wire 1 7$ mem|altsyncram_component|auto_generated|ram_block1a0_PORTADATAOUT_bus [12] $end
$var wire 1 8$ mem|altsyncram_component|auto_generated|ram_block1a0_PORTADATAOUT_bus [11] $end
$var wire 1 9$ mem|altsyncram_component|auto_generated|ram_block1a0_PORTADATAOUT_bus [10] $end
$var wire 1 :$ mem|altsyncram_component|auto_generated|ram_block1a0_PORTADATAOUT_bus [9] $end
$var wire 1 ;$ mem|altsyncram_component|auto_generated|ram_block1a0_PORTADATAOUT_bus [8] $end
$var wire 1 <$ mem|altsyncram_component|auto_generated|ram_block1a0_PORTADATAOUT_bus [7] $end
$var wire 1 =$ mem|altsyncram_component|auto_generated|ram_block1a0_PORTADATAOUT_bus [6] $end
$var wire 1 >$ mem|altsyncram_component|auto_generated|ram_block1a0_PORTADATAOUT_bus [5] $end
$var wire 1 ?$ mem|altsyncram_component|auto_generated|ram_block1a0_PORTADATAOUT_bus [4] $end
$var wire 1 @$ mem|altsyncram_component|auto_generated|ram_block1a0_PORTADATAOUT_bus [3] $end
$var wire 1 A$ mem|altsyncram_component|auto_generated|ram_block1a0_PORTADATAOUT_bus [2] $end
$var wire 1 B$ mem|altsyncram_component|auto_generated|ram_block1a0_PORTADATAOUT_bus [1] $end
$var wire 1 C$ mem|altsyncram_component|auto_generated|ram_block1a0_PORTADATAOUT_bus [0] $end
$upscope $end
$upscope $end
$enddefinitions $end
#0
$dumpvars
0!
0"
0#
0$
0-
0,
0+
0*
0)
0(
0'
0&
0%
0.
0/
10
x1
12
13
14
05
06
07
08
09
1:
0;
0<
0=
0>
0?
0@
0A
0B
0C
0D
1E
0F
0G
0H
0I
0J
0K
0L
0M
0N
0O
0P
0Q
1R
0S
1T
0U
0V
0W
0X
1Y
1Z
0[
0\
1]
1^
0_
0`
0a
0b
0c
0d
0e
0f
0g
0h
0i
0j
0k
0l
0m
0n
0o
0p
0q
0r
0s
0t
0u
0v
0w
0x
0y
0z
0{
0|
0}
0~
0!!
0"!
0#!
0$!
0%!
0&!
0'!
0(!
0)!
0*!
0+!
0,!
0-!
0.!
0/!
00!
01!
02!
03!
04!
05!
06!
07!
08!
09!
0:!
0;!
0<!
0=!
0>!
0?!
0@!
0A!
0B!
0C!
0D!
0E!
0F!
0G!
0H!
0I!
0J!
0K!
0L!
0M!
0N!
0O!
0P!
0Q!
0Y!
0X!
0W!
0V!
0U!
0T!
0S!
1R!
0b!
0a!
0`!
0_!
0^!
0]!
0\!
0[!
0Z!
0d!
0c!
0m!
0l!
0k!
0j!
0i!
0h!
0g!
0f!
0e!
0v!
0u!
0t!
0s!
0r!
0q!
0p!
0o!
0n!
0!"
0~!
0}!
0|!
0{!
0z!
0y!
0x!
0w!
0)"
0("
0'"
0&"
0%"
0$"
0#"
1""
02"
01"
00"
0/"
0."
0-"
0,"
0+"
0*"
0;"
0:"
09"
08"
07"
06"
05"
04"
03"
0D"
0C"
0B"
0A"
0@"
0?"
0>"
0="
0<"
0M"
0L"
0K"
0J"
0I"
0H"
0G"
0F"
0E"
0V"
0U"
0T"
0S"
0R"
0Q"
0P"
0O"
0N"
0_"
0^"
0]"
0\"
0["
0Z"
0Y"
0X"
0W"
0h"
0g"
0f"
0e"
0d"
0c"
0b"
0a"
0`"
0q"
0p"
0o"
0n"
0m"
0l"
0k"
0j"
0i"
0s"
0r"
0v"
0u"
0t"
0~"
0}"
0|"
0{"
0z"
0y"
0x"
0w"
0)#
0(#
0'#
0&#
0%#
0$#
0##
0"#
0!#
0.#
0-#
0,#
0+#
0*#
07#
06#
05#
04#
03#
02#
01#
00#
0/#
0@#
0?#
0>#
0=#
0<#
0;#
0:#
09#
08#
0I#
0H#
0G#
0F#
0E#
0D#
0C#
0B#
0A#
0N#
0M#
0L#
0K#
0J#
0W#
0V#
0U#
0T#
0S#
0R#
0Q#
0P#
0O#
0`#
0_#
0^#
0]#
0\#
0[#
0Z#
0Y#
0X#
0i#
0h#
0g#
0f#
0e#
0d#
0c#
0b#
0a#
0r#
0q#
0p#
0o#
0n#
0m#
0l#
0k#
0j#
0{#
0z#
0y#
0x#
0w#
0v#
0u#
0t#
0s#
0&$
0%$
0$$
0#$
0"$
0!$
0~#
0}#
0|#
0/$
0.$
0-$
0,$
0+$
0*$
0)$
0($
0'$
0C$
0B$
0A$
0@$
0?$
0>$
0=$
0<$
0;$
0:$
09$
08$
07$
06$
05$
04$
03$
02$
01$
00$
$end
#10000
1#
1"
1;
16
17
#20000
1!
1$
0"
18
1D
06
07
19
1s"
1<
1.#
1N#
0:
1=
#20001
1=$
1\!
1Z#
#30000
0!
1"
08
16
17
09
1y!
1d!
1G
0E
0s"
1v"
1F
1r"
1.
1_
1M
0G
1J
1w"
0r"
0^
0Z
0T
0J
0R
1<!
1^
0<!
1=!
1'
1<!
0=!
1;!
0'
1=!
0;!
1'
1;!
#40000
0$
1!
0"
0D
18
06
07
19
1>
1-#
0<
0.#
0N#
1M#
1:
#40001
1C$
1A$
0=$
0\!
1`!
1b!
1`#
1^#
0Z#
0<!
1v
1d
1e
1w
0=!
0'
1+
1-
0;!
1u
1b
1W
#50000
0!
1"
08
16
17
09
1T"
1V"
0d!
0_
0M
1E
1{#
1y#
0F
0.
1Z
1T
1R
0v
0d
0w"
0e
0w
0+
0-
0u
0b
0W
#60000
1$
1!
0"
1D
18
06
07
19
1s"
1<
1.#
1N#
0:
1?
0=
#60001
0C$
0A$
1@$
1_!
0`!
0b!
0`#
0^#
1]#
#70000
0!
1"
08
16
17
09
0y!
1|!
1d!
1_
1M
0E
0s"
0R!
1S!
0v"
1F
1r"
1.
0_
0M
1G
1x"
0Z
0T
0R
1!!
0r"
1J
1Z
1T
1R
0!!
1"!
1*
1p
1S
0^
0Z
0T
0"!
1~
0*
1e
1w
0~
1+
1-
1u
1b
1W
#80000
0$
0"
0D
06
07
#90000
1"
16
17
1f"
1h"
0d!
0G
1E
1&$
1$$
0F
0.
0J
0x"
0p
1^
1Z
1T
0S
0e
0w
0+
0-
0u
0b
0W
#100000
1!
1$
0"
18
1D
06
07
19
1s"
1@
1,#
0>
0-#
0<
0.#
0N#
0M#
1L#
1:
#100001
1C$
0@$
1<$
1[!
0_!
1b!
1`#
0]#
1Y#
#110000
0!
1"
08
16
17
09
1!"
0|!
1x!
1d!
1G
0E
0s"
1u"
1R!
0S!
0""
1#"
1F
1r"
1.
1I
1w"
1H
0G
0F
0r"
0.
1J
0I
1p
0^
0Z
0T
1S
0w"
1r"
1e
1w
1+
1-
1u
1b
1W
#120000
0$
0"
0D
06
07
#130000
1"
16
17
15#
17#
0d!
1C
1c!
1G
1c
0H
1s"
1/$
1-$
1}
1k
0J
1I
0u
0b
1~
1l
#140000
0"
06
07
#150000
1"
16
17
1n"
1p"
1d!
0c
1\
1M
0G
0s"
1(#
1&#
1F
0r"
1.
0I
0R
1w"
0p
0S
1^
1!!
1m
0e
0w
0+
0-
0}
0k
1n
1"!
1u
1b
0W
1*
1,
#160000
0"
06
07
#170000
1"
16
17
1S"
0T"
1U"
0V"
0d!
0C
0c!
0\
0M
1E
0{#
1z#
0y#
1x#
0F
0.
1Z
1T
1R
0!!
0m
0w"
0n
0"!
0*
0,
0~
0l
#180000
1!
1$
0"
18
1D
06
07
19
1s"
1<
1.#
1N#
0:
1=
#180001
0C$
1=$
1\!
0b!
0`#
1Z#
#190000
0!
1"
08
16
17
09
0!"
1y!
1d!
1H
0E
0s"
1v"
1""
0#"
1r"
1J
1`
1|
1g
0^
0Z
0T
1n
1"!
1*
1,
1~
1l
#200000
0$
0"
0D
06
07
#210000
1"
16
17
14#
05#
16#
07#
0d!
1C
1c!
1}
1k
1a
1G
1c
0H
1s"
0/$
1.$
0-$
1,$
1O!
1D!
1;!
12!
1)!
0~
0u
0l
0b
1(!
1t
0}
1u
11!
1}
0(!
0)!
0u
1~
1:!
1(!
01!
02!
0~
1)!
1C!
11!
0:!
0;!
0)!
12!
1N!
1:!
0C!
0D!
02!
1;!
1C!
0N!
0O!
0;!
1D!
1N!
0D!
1O!
0O!
#220000
0"
06
07
#230000
1"
16
17
0n"
0p"
1d!
0N!
0C!
0:!
01!
0}
0c
0k
0a
1\
1M
0G
0s"
0(#
0&#
1O!
1D!
1;!
12!
1)!
1~
1u
1l
1b
1F
0r"
1.
0J
0R
1w"
0O!
0D!
0;!
02!
0~
0l
0b
0|
0g
1^
0n
0"!
0*
0,
0(!
0t
1~
1l
0)!
0u
#240000
0"
06
07
#250000
1"
16
17
0S"
0U"
0d!
0C
0c!
0\
0M
1E
0z#
0x#
0F
0.
1Z
1T
1R
0w"
#260000
0"
06
07
#270000
1"
16
17
#280000
0"
06
07
#290000
1"
16
17
